Linear Model Power Analysis with Dplyr · I'm a Chordata! Urochordata!
…
Yatzee! Ready to run!

4 Fit models and extract coefficients

First, we now need to generate a lot of fit models. Dplyr doesn’t take too kindly to including fit things, so, we can use two powerful functions here - first, nest and unnest() allow us to collapse grouped data down into little pieces and re-expand it.

fits <- simPopN %>%
    group_by(slope, intercept, sigma, n, sim) %>%
    nest()

fits

## # A tibble: 9,100 × 6
##      slope intercept  sigma     n   sim              data
##      <dbl>     <dbl>  <dbl> <int> <int>            <list>
## 1  0.00237   115.767 5.6805    10     1 <tibble [10 × 3]>
## 2  0.00237   115.767 5.6805    10     2 <tibble [10 × 3]>
## 3  0.00237   115.767 5.6805    10     3 <tibble [10 × 3]>
## 4  0.00237   115.767 5.6805    10     4 <tibble [10 × 3]>
## 5  0.00237   115.767 5.6805    10     5 <tibble [10 × 3]>
## 6  0.00237   115.767 5.6805    10     6 <tibble [10 × 3]>
## 7  0.00237   115.767 5.6805    10     7 <tibble [10 × 3]>
## 8  0.00237   115.767 5.6805    10     8 <tibble [10 × 3]>
## 9  0.00237   115.767 5.6805    10     9 <tibble [10 × 3]>
## 10 0.00237   115.767 5.6805    10    10 <tibble [10 × 3]>
## # ... with 9,090 more rows

Second, the map function in the purrr library allows us to iterate over different levels or grouped data frames, and perform some function. In this case, we’ll fit a model, get it’s coefficients using broom. This is a new weird set of functions. What’s odd about map is that the first argument is a column. But that argument, for the rest of the arguments of the function, is now called . and we also use the ~ notation. What ~ does is says that, from this point forward, . refers to the first argument given to map.

In essence, what map does is iterate over each element of a list given to it. Once we nest, the data column is now a list, with each element of the list it’s own unique data frame. So, map works with lists to apply a function to each element. The output of the model fitting is another list - now called mod. A list of models. We then iterate, using map over that list to generate another list of data frames - this time of coefficients.

library(purrr)
library(broom)

fits <- fits %>%
    mutate(mod = map(data, ~lm(length.cm ~ age.days, data=.))) %>%
    mutate(coefs = map(mod, ~tidy(.)))

fits

## # A tibble: 9,100 × 8
##      slope intercept  sigma     n   sim              data      mod
##      <dbl>     <dbl>  <dbl> <int> <int>            <list>   <list>
## 1  0.00237   115.767 5.6805    10     1 <tibble [10 × 3]> <S3: lm>
## 2  0.00237   115.767 5.6805    10     2 <tibble [10 × 3]> <S3: lm>
## 3  0.00237   115.767 5.6805    10     3 <tibble [10 × 3]> <S3: lm>
## 4  0.00237   115.767 5.6805    10     4 <tibble [10 × 3]> <S3: lm>
## 5  0.00237   115.767 5.6805    10     5 <tibble [10 × 3]> <S3: lm>
## 6  0.00237   115.767 5.6805    10     6 <tibble [10 × 3]> <S3: lm>
## 7  0.00237   115.767 5.6805    10     7 <tibble [10 × 3]> <S3: lm>
## 8  0.00237   115.767 5.6805    10     8 <tibble [10 × 3]> <S3: lm>
## 9  0.00237   115.767 5.6805    10     9 <tibble [10 × 3]> <S3: lm>
## 10 0.00237   115.767 5.6805    10    10 <tibble [10 × 3]> <S3: lm>
## # ... with 9,090 more rows, and 1 more variables: coefs <list>

Last, we cleanup - we unnest, which takes list-columns from above, and expands them out as into full data frames that get slotted back into our original data frame. Nice trick, no?

We’ll also filter for just the slope coefficient.

fits <- fits %>%
  unnest(coefs) %>%
  ungroup() %>%
  filter(term == "age.days")

fits

## # A tibble: 9,100 × 10
##      slope intercept  sigma     n   sim     term     estimate    std.error
##      <dbl>     <dbl>  <dbl> <int> <int>    <chr>        <dbl>        <dbl>
## 1  0.00237   115.767 5.6805    10     1 age.days 0.0004283944 0.0010318274
## 2  0.00237   115.767 5.6805    10     2 age.days 0.0021239104 0.0005736028
## 3  0.00237   115.767 5.6805    10     3 age.days 0.0033531879 0.0009399613
## 4  0.00237   115.767 5.6805    10     4 age.days 0.0032566962 0.0008342080
## 5  0.00237   115.767 5.6805    10     5 age.days 0.0028332982 0.0009062293
## 6  0.00237   115.767 5.6805    10     6 age.days 0.0028501936 0.0005176723
## 7  0.00237   115.767 5.6805    10     7 age.days 0.0021677718 0.0004457464
## 8  0.00237   115.767 5.6805    10     8 age.days 0.0034636535 0.0006116823
## 9  0.00237   115.767 5.6805    10     9 age.days 0.0012147324 0.0012945056
## 10 0.00237   115.767 5.6805    10    10 age.days 0.0039061730 0.0011307423
## # ... with 9,090 more rows, and 2 more variables: statistic <dbl>,
## #   p.value <dbl>
…
